37 İletim Zincirleri | The Epidemiologist R Handbook
…
Epicontacts nesnelerini inceledikten sonra, satır listesindeki case_id sütununun id olarak yeniden adlandırıldığını ve temaslılardaki case_id ve infector sütunlarının from (-den) ve to (-e) olarak yeniden adlandırıldığını görebiliriz. Bu adım, sonraki işleme, görselleştirme ve analiz işlemlerinde tutarlılık sağlar.

##  epicontacts nesnesini göster
epic

## 
## /// Epidemiological Contacts //
## 
##   // class: epicontacts
##   // 5,888 cases in linelist; 3,800 contacts; directed 
## 
##   // linelist
## 
## # A tibble: 5,888 × 30
##    id     generation date_infec…¹ date_onset date_hos…² date_out…³ outcome gender   age age_u…⁴ age_y…⁵ age_cat age_c…⁶
##    <chr>       <dbl> <date>       <date>     <date>     <date>     <chr>   <chr>  <dbl> <chr>     <dbl> <fct>   <fct>  
##  1 5fe599          4 2014-05-08   2014-05-13 2014-05-15 NA         <NA>    m          2 years         2 0-4     0-4    
##  2 8689b7          4 NA           2014-05-13 2014-05-14 2014-05-18 Recover f          3 years         3 0-4     0-4    
##  3 11f8ea          2 NA           2014-05-16 2014-05-18 2014-05-30 Recover m         56 years        56 50-69   55-59  
##  4 b8812a          3 2014-05-04   2014-05-18 2014-05-20 NA         <NA>    f         18 years        18 15-19   15-19  
##  5 893f25          3 2014-05-18   2014-05-21 2014-05-22 2014-05-29 Recover m          3 years         3 0-4     0-4    
##  6 be99c8          3 2014-05-03   2014-05-22 2014-05-23 2014-05-24 Recover f         16 years        16 15-19   15-19  
##  7 07e3e8          4 2014-05-22   2014-05-27 2014-05-29 2014-06-01 Recover f         16 years        16 15-19   15-19  
##  8 369449          4 2014-05-28   2014-06-02 2014-06-03 2014-06-07 Death   f          0 years         0 0-4     0-4    
##  9 f393b4          4 NA           2014-06-05 2014-06-06 2014-06-18 Recover m         61 years        61 50-69   60-64  
## 10 1389ca          4 NA           2014-06-05 2014-06-07 2014-06-09 Death   f         27 years        27 20-29   25-29  
## # … with 5,878 more rows, 17 more variables: hospital <chr>, lon <dbl>, lat <dbl>, infector <chr>, source <chr>,
## #   wt_kg <dbl>, ht_cm <dbl>, ct_blood <dbl>, fever <chr>, chills <chr>, cough <chr>, aches <chr>, vomit <chr>,
## #   temp <dbl>, time_admission <chr>, bmi <dbl>, days_onset_hosp <dbl>, and abbreviated variable names
## #   ¹​date_infection, ²​date_hospitalisation, ³​date_outcome, ⁴​age_unit, ⁵​age_years, ⁶​age_cat5
## 
##   // contacts
## 
## # A tibble: 3,800 × 4
##    from   to     location   duration
##    <chr>  <chr>  <chr>         <int>
##  1 f547d6 5fe599 Nosocomial        3
##  2 f90f5f b8812a Nosocomial        2
##  3 11f8ea 893f25 Community        10
##  4 aec8ec be99c8 Community         6
##  5 893f25 07e3e8 Nosocomial        8
##  6 133ee7 369449 Nosocomial        8
##  7 996f3a 2978ac Community         7
##  8 133ee7 57a565 Community         8
##  9 37a6f6 fc15ef Nosocomial        8
## 10 9f6884 2eaa9a Community        10
## # … with 3,790 more rows
…
## 
## /// Epidemiological Contacts //
## 
##   // class: epicontacts
##   // 69 cases in linelist; 1,951 contacts; directed 
## 
##   // linelist
## 
## # A tibble: 69 × 30
##    id     generation date_infec…¹ date_onset date_hos…² date_out…³ outcome gender   age age_u…⁴ age_y…⁵ age_cat age_c…⁶
##    <chr>       <dbl> <date>       <date>     <date>     <date>     <chr>   <chr>  <dbl> <chr>     <dbl> <fct>   <fct>  
##  1 5fe599          4 2014-05-08   2014-05-13 2014-05-15 NA         <NA>    m          2 years         2 0-4     0-4    
##  2 893f25          3 2014-05-18   2014-05-21 2014-05-22 2014-05-29 Recover m          3 years         3 0-4     0-4    
##  3 2978ac          4 2014-05-30   2014-06-06 2014-06-08 2014-06-15 Death   m         12 years        12 10-14   10-14  
##  4 57a565          4 2014-05-28   2014-06-13 2014-06-15 NA         Death   m         42 years        42 30-49   40-44  
##  5 fc15ef          6 2014-06-14   2014-06-16 2014-06-17 2014-07-09 Recover m         19 years        19 15-19   15-19  
##  6 99e8fa          7 2014-06-24   2014-06-28 2014-06-29 2014-07-09 Recover m         19 years        19 15-19   15-19  
##  7 f327be          6 2014-06-14   2014-07-12 2014-07-13 2014-07-14 Death   m         31 years        31 30-49   30-34  
##  8 90e5fe          5 2014-06-18   2014-07-13 2014-07-14 2014-07-16 <NA>    m         67 years        67 50-69   65-69  
##  9 a47529          5 2014-06-13   2014-07-17 2014-07-18 2014-07-26 Death   m         45 years        45 30-49   45-49  
## 10 da8ecb          5 2014-06-20   2014-07-18 2014-07-20 2014-08-01 <NA>    m         12 years        12 10-14   10-14  
## # … with 59 more rows, 17 more variables: hospital <chr>, lon <dbl>, lat <dbl>, infector <chr>, source <chr>,
## #   wt_kg <dbl>, ht_cm <dbl>, ct_blood <dbl>, fever <chr>, chills <chr>, cough <chr>, aches <chr>, vomit <chr>,
## #   temp <dbl>, time_admission <chr>, bmi <dbl>, days_onset_hosp <dbl>, and abbreviated variable names
## #   ¹​date_infection, ²​date_hospitalisation, ³​date_outcome, ⁴​age_unit, ⁵​age_years, ⁶​age_cat5
## 
##   // contacts
## 
## # A tibble: 1,951 × 4
##    from   to     location   duration
##    <chr>  <chr>  <chr>         <int>
##  1 f547d6 5fe599 Nosocomial        3
##  2 f90f5f b8812a Nosocomial        2
##  3 893f25 07e3e8 Nosocomial        8
##  4 133ee7 369449 Nosocomial        8
##  5 37a6f6 fc15ef Nosocomial        8
##  6 4802b1 bbfa93 Nosocomial        3
##  7 a75c7f 7f5a01 Nosocomial        6
##  8 a2086d a47529 Nosocomial        6
##  9 eb2277 da8ecb Nosocomial        2
## 10 d6584f f5c142 Nosocomial        4
## # … with 1,941 more rows
…
