43 Shiny ile Gösterge Panelleri | The Epidemiologist R Handbook
…
Bu liste oldukça basittir ve yapılması çok zor olmamalıdır. Artık bu sürecin hangi bölümlerinin yalnızca bir kez yapılması gerektiğini ve hangi bölümlerin kullanıcı girdilerine yanıt olarak çalıştırılması gerektiğini düşünmek önemlidir. Bunun nedeni, shiny uygulamalarının genellikle kullanımdan önce yalnızca bir kez çalıştırılan bazı kodları çalıştırmasıdır. Kodumuzun çoğu bu bölüme taşınabilirse, uygulamamızın performansına yardımcı olacaktır. Bu örnek için, sadece verilerimizi/paketlerimizi yüklememiz ve temel dönüşümleri bir kez yapmamız gerekiyor, böylece kodu sunucunun dışına yerleştirebiliriz. Bu, sunucuda ihtiyacımız olan tek kodun verilerimizi görselleştirecek kod olduğu anlamına gelir. Önce tüm bu bileşenleri bir komut dosyasında geliştirelim. Ancak verilerimizi bir fonksiyon ile görselleştirdiğimiz için, fonksiyonun kodunu sunucunun dışına da koyabiliriz, böylece uygulama çalıştığında fonksiyonumuz ortamda olur!

Önce verilerimizi yükleyelim. Yeni bir proje ile çalıştığımız ve temizlemek istediğimiz için data adında yeni bir dizin oluşturabilir ve sıtma verilerimizi oraya ekleyebiliriz. Aşağıdaki kodu, uygulamamızın yapısını temizlediğimizde sileceğimiz bir test komut dosyasında çalıştırabiliriz.

pacman::p_load("tidyverse", "lubridate")

# veriyi oku
malaria_data <- rio::import(here::here("data", "malaria_facility_count_data.rds")) %>% 
  as_tibble()

print(malaria_data)

## # A tibble: 3,038 × 10
##    location_name data_date  submitted_date Province District `malaria_rdt_0-4` `malaria_rdt_5-14` malar…¹ malar…² newid
##    <chr>         <date>     <date>         <chr>    <chr>                <int>              <int>   <int>   <int> <int>
##  1 Facility 1    2020-08-11 2020-08-12     North    Spring                  11                 12      23      46     1
##  2 Facility 2    2020-08-11 2020-08-12     North    Bolo                    11                 10       5      26     2
##  3 Facility 3    2020-08-11 2020-08-12     North    Dingo                    8                  5       5      18     3
##  4 Facility 4    2020-08-11 2020-08-12     North    Bolo                    16                 16      17      49     4
##  5 Facility 5    2020-08-11 2020-08-12     North    Bolo                     9                  2       6      17     5
##  6 Facility 6    2020-08-11 2020-08-12     North    Dingo                    3                  1       4       8     6
##  7 Facility 6    2020-08-10 2020-08-12     North    Dingo                    4                  0       3       7     6
##  8 Facility 5    2020-08-10 2020-08-12     North    Bolo                    15                 14      13      42     5
##  9 Facility 5    2020-08-09 2020-08-12     North    Bolo                    11                 11      13      35     5
## 10 Facility 5    2020-08-08 2020-08-12     North    Bolo                    19                 15      15      49     5
## # … with 3,028 more rows, and abbreviated variable names ¹​malaria_rdt_15, ²​malaria_tot

Tidy (düzenli) veri standartları kullanırsak bu verilerle çalışmak daha kolay olacaktır, bu nedenle yaş grubunun bir sütun olduğu ve vakaların başka bir sütun olduğu uzun bir veri formatına da pivotlamalıyız. Verilerin pivotlanması sayfasında öğrendiklerimizi kullanarak bunu kolayca yapabiliriz.

malaria_data <- malaria_data %>%
  select(-newid) %>%
  pivot_longer(cols = starts_with("malaria_"), names_to = "age_group", values_to = "cases_reported")

print(malaria_data)

## # A tibble: 12,152 × 7
##    location_name data_date  submitted_date Province District age_group        cases_reported
##    <chr>         <date>     <date>         <chr>    <chr>    <chr>                     <int>
##  1 Facility 1    2020-08-11 2020-08-12     North    Spring   malaria_rdt_0-4              11
##  2 Facility 1    2020-08-11 2020-08-12     North    Spring   malaria_rdt_5-14             12
##  3 Facility 1    2020-08-11 2020-08-12     North    Spring   malaria_rdt_15               23
##  4 Facility 1    2020-08-11 2020-08-12     North    Spring   malaria_tot                  46
##  5 Facility 2    2020-08-11 2020-08-12     North    Bolo     malaria_rdt_0-4              11
##  6 Facility 2    2020-08-11 2020-08-12     North    Bolo     malaria_rdt_5-14             10
##  7 Facility 2    2020-08-11 2020-08-12     North    Bolo     malaria_rdt_15                5
##  8 Facility 2    2020-08-11 2020-08-12     North    Bolo     malaria_tot                  26
##  9 Facility 3    2020-08-11 2020-08-12     North    Dingo    malaria_rdt_0-4               8
## 10 Facility 3    2020-08-11 2020-08-12     North    Dingo    malaria_rdt_5-14              5
## # … with 12,142 more rows
…
# bölgeye göre konum adlarının veri çerçevesi
facility_list <- malaria_data %>%
  group_by(location_name, District) %>%
  summarise() %>% 
  ungroup()

Bölgelere bakalım

all_districts

## [1] "All"     "Spring"  "Bolo"    "Dingo"   "Barnard"

facility_list

## # A tibble: 65 × 2
##    location_name District
##    <chr>         <chr>   
##  1 Facility 1    Spring  
##  2 Facility 10   Bolo    
##  3 Facility 11   Spring  
##  4 Facility 12   Dingo   
##  5 Facility 13   Bolo    
##  6 Facility 14   Dingo   
##  7 Facility 15   Barnard 
##  8 Facility 16   Barnard 
##  9 Facility 17   Barnard 
## 10 Facility 18   Bolo    
## # … with 55 more rows
…
