25 Temaslı izlemi | The Epidemiologist R Handbook
…
Go.Data veri yapısıyla, ‘ilişkiler’ veri kümesi hem vakaların hem de ilgili kişilerin yaşlarını içerir, böylece bu veri kümesini kullanabilir ve bu iki insan grubu arasındaki farkları gösteren bir yaş piramidi oluşturabilirsiniz. “İlişkiler” veri çerçevesi, sayısal yaş sütunlarını kategorilere dönüştürmek için değiştirilecektir (bkz. [Temizleme verileri ve temel işlevler] sayfası). Ayrıca, ggplot2 ile çizimi kolaylaştırmak için veri çerçevesini daha uzun süre döndürürüz (bkz. [Özetleme verileri]).

relation_age <- relationships %>% 
  select(source_age, target_age) %>% 
  transmute(                              # transmute, mutate() gibidir ancak bahsedilmeyen tüm diğer sütunları kaldırır
    source_age_class = epikit::age_categories(source_age, breakers = seq(0, 80, 5)),
    target_age_class = epikit::age_categories(target_age, breakers = seq(0, 80, 5)),
    ) %>% 
  pivot_longer(cols = contains("class"), names_to = "category", values_to = "age_class")  

relation_age

## # A tibble: 200 × 2
##    category         age_class
##    <chr>            <fct>    
##  1 source_age_class 80+      
##  2 target_age_class 15-19    
##  3 source_age_class <NA>     
##  4 target_age_class 50-54    
##  5 source_age_class <NA>     
##  6 target_age_class 20-24    
##  7 source_age_class 30-34    
##  8 target_age_class 45-49    
##  9 source_age_class 40-44    
## 10 target_age_class 30-34    
## # … with 190 more rows
…
Vaka başına temaslı sayısı, temaslı numaralandırmanın kalitesini ve nüfusun halk sağlığı müdahalesine uygunluğunu değerlendirmek için önemli bir ölçü olabilir.

Veri yapınıza bağlı olarak bu, tüm vakaları ve ilgili kişileri içeren bir veri seti ile değerlendirilebilir. Go.Data veri kümelerinde, vakalar (“kaynaklar”) ve kişiler (“hedefler”) arasındaki bağlantılar “ilişkiler” veri kümesinde depolanır.

Bu veri kümesinde her satır bir ilgili kişidir ve kaynak vaka satırda listelenir. Birden fazla vakayla ilişkisi olan hiç kimse yok, ancak bu varsa, planlamadan önce olanları hesaba katmanız gerekebilir (ve onları da keşfedin!).

Kaynak vaka başına satır (kişi) sayısını sayarak başlarız. Bu bir veri çerçevesi olarak kaydedilir.

contacts_per_case <- relationships %>% 
  count(source_visualid)

contacts_per_case

## # A tibble: 23 × 2
##    source_visualid     n
##    <chr>           <int>
##  1 CASE-2020-0001     13
##  2 CASE-2020-0002      5
##  3 CASE-2020-0003      2
##  4 CASE-2020-0004      4
##  5 CASE-2020-0005      5
##  6 CASE-2020-0006      3
##  7 CASE-2020-0008      3
##  8 CASE-2020-0009      3
##  9 CASE-2020-0010      3
## 10 CASE-2020-0012      3
## # … with 13 more rows
…
