13 Verileri Gruplama | The Epidemiologist R Handbook
…
Örneğin, aşağıdaki komut “linelist”i alır ve satırları “outcome” sütunundaki benzersiz değerlere göre gruplayarak çıktıyı yeni bir “ll_by_outcome” veri çerçevesi olarak kaydeder. Gruplandırma sütunu/sütunları, ‘group_by()’ fonksiyonunun parantezlerin içine yerleştirilir.

ll_by_outcome <- linelist %>% 
  group_by(outcome)

Veri kümesinde algılanabilir bir değişiklik olmadığını unutmayın
group_by() çalıştırıldıktan sonra, mutate(), summarise() veya arrange() gibi başka bir dplyr fiili “gruplandırılmış” veri çerçevesine kadar uygulanır.

Bununla birlikte, veri çerçevesini yazdırarak gruplamaları “görebilirsiniz”. Gruplandırılmış bir veri çerçevesi yazdırdığınızda, bunun yazdırıldığında hangi gruplamaların uygulandığını ve kaç tane olduğunu gösteren bir tibble sınıf nesnesine dönüştürüldüğünü göreceksiniz - başlık satırının hemen üstüne yazılır.

# hangi grupların aktif olduğunu görmek için yazdır
ll_by_outcome

## # A tibble: 5,888 × 30
## # Groups:   outcome [3]
##    case_id generation date_infe…¹ date_onset date_hos…² date_out…³ outcome gender   age age_u…⁴ age_y…⁵ age_cat age_c…⁶
##    <chr>        <dbl> <date>      <date>     <date>     <date>     <chr>   <chr>  <dbl> <chr>     <dbl> <fct>   <fct>  
##  1 5fe599           4 2014-05-08  2014-05-13 2014-05-15 NA         <NA>    m          2 years         2 0-4     0-4    
##  2 8689b7           4 NA          2014-05-13 2014-05-14 2014-05-18 Recover f          3 years         3 0-4     0-4    
##  3 11f8ea           2 NA          2014-05-16 2014-05-18 2014-05-30 Recover m         56 years        56 50-69   55-59  
##  4 b8812a           3 2014-05-04  2014-05-18 2014-05-20 NA         <NA>    f         18 years        18 15-19   15-19  
##  5 893f25           3 2014-05-18  2014-05-21 2014-05-22 2014-05-29 Recover m          3 years         3 0-4     0-4    
##  6 be99c8           3 2014-05-03  2014-05-22 2014-05-23 2014-05-24 Recover f         16 years        16 15-19   15-19  
##  7 07e3e8           4 2014-05-22  2014-05-27 2014-05-29 2014-06-01 Recover f         16 years        16 15-19   15-19  
##  8 369449           4 2014-05-28  2014-06-02 2014-06-03 2014-06-07 Death   f          0 years         0 0-4     0-4    
##  9 f393b4           4 NA          2014-06-05 2014-06-06 2014-06-18 Recover m         61 years        61 50-69   60-64  
## 10 1389ca           4 NA          2014-06-05 2014-06-07 2014-06-09 Death   f         27 years        27 20-29   25-29  
## # … with 5,878 more rows, 17 more variables: hospital <chr>, lon <dbl>, lat <dbl>, infector <chr>, source <chr>,
## #   wt_kg <dbl>, ht_cm <dbl>, ct_blood <dbl>, fever <chr>, chills <chr>, cough <chr>, aches <chr>, vomit <chr>,
## #   temp <dbl>, time_admission <chr>, bmi <dbl>, days_onset_hosp <dbl>, and abbreviated variable names
## #   ¹​date_infection, ²​date_hospitalisation, ³​date_outcome, ⁴​age_unit, ⁵​age_years, ⁶​age_cat5
…
Sayıları ekle

‘count()’ ve ‘summarise()’in aksine, diğer tüm veri çerçevesi sütunlarını korurken grup başına satır sayısıyla yeni bir ’n’ sütunu eklemek için ‘add_count()’ kullanabilirsiniz.

Bu, yeni n sütunundaki bir grubun sayım numarasının grubun her satırına yazdırılacağı anlamına gelir. Gösteri amacıyla, bu sütunu ekliyoruz ve daha sonra daha kolay görüntüleme için sütunları yeniden düzenliyoruz. Başka bir örnek için aşağıdaki grup boyutuna göre filtrele bölümüne bakabilirsiniz.

linelist %>% 
  as_tibble() %>%                   # daha güzel baskı için tibble'a dönüştürün
  add_count(hospital) %>%           # hastaneye göre sayılarla n sütunu ekle
  select(hospital, n, everything()) # demo amaçlı yeniden düzenlemek

## # A tibble: 5,888 × 31
##    hospital          n case_id gener…¹ date_inf…² date_onset date_hos…³ date_out…⁴ outcome gender   age age_u…⁵ age_y…⁶
##    <chr>         <int> <chr>     <dbl> <date>     <date>     <date>     <date>     <chr>   <chr>  <dbl> <chr>     <dbl>
##  1 Other           885 5fe599        4 2014-05-08 2014-05-13 2014-05-15 NA         <NA>    m          2 years         2
##  2 Missing        1469 8689b7        4 NA         2014-05-13 2014-05-14 2014-05-18 Recover f          3 years         3
##  3 St. Mark's M…   422 11f8ea        2 NA         2014-05-16 2014-05-18 2014-05-30 Recover m         56 years        56
##  4 Port Hospital  1762 b8812a        3 2014-05-04 2014-05-18 2014-05-20 NA         <NA>    f         18 years        18
##  5 Military Hos…   896 893f25        3 2014-05-18 2014-05-21 2014-05-22 2014-05-29 Recover m          3 years         3
##  6 Port Hospital  1762 be99c8        3 2014-05-03 2014-05-22 2014-05-23 2014-05-24 Recover f         16 years        16
##  7 Missing        1469 07e3e8        4 2014-05-22 2014-05-27 2014-05-29 2014-06-01 Recover f         16 years        16
##  8 Missing        1469 369449        4 2014-05-28 2014-06-02 2014-06-03 2014-06-07 Death   f          0 years         0
##  9 Missing        1469 f393b4        4 NA         2014-06-05 2014-06-06 2014-06-18 Recover m         61 years        61
## 10 Missing        1469 1389ca        4 NA         2014-06-05 2014-06-07 2014-06-09 Death   f         27 years        27
## # … with 5,878 more rows, 18 more variables: age_cat <fct>, age_cat5 <fct>, lon <dbl>, lat <dbl>, infector <chr>,
## #   source <chr>, wt_kg <dbl>, ht_cm <dbl>, ct_blood <dbl>, fever <chr>, chills <chr>, cough <chr>, aches <chr>,
## #   vomit <chr>, temp <dbl>, time_admission <chr>, bmi <dbl>, days_onset_hosp <dbl>, and abbreviated variable names
## #   ¹​generation, ²​date_infection, ³​date_hospitalisation, ⁴​date_outcome, ⁵​age_unit, ⁶​age_years
…
Satır listesini “hastane” sütununa göre gruplandırın

Kayıtları en geçten en erken ’hastaneye yatış tarihi’ne her hastane grubu içinde düzenleyin

Her hastaneden ilk 5 sırayı almak için dilimleyin

linelist %>%
  group_by(hospital) %>%
  arrange(hospital, date_hospitalisation) %>%
  slice_head(n = 5) %>% 
  arrange(hospital) %>%                            
  select(case_id, hospital, date_hospitalisation)  # görüntülemek için

## # A tibble: 30 × 3
## # Groups:   hospital [6]
##    case_id hospital          date_hospitalisation
##    <chr>   <chr>             <date>              
##  1 20b688  Central Hospital  2014-05-06          
##  2 d58402  Central Hospital  2014-05-10          
##  3 b8f2fd  Central Hospital  2014-05-13          
##  4 acf422  Central Hospital  2014-05-28          
##  5 275cc7  Central Hospital  2014-05-28          
##  6 d1fafd  Military Hospital 2014-04-17          
##  7 974bc1  Military Hospital 2014-05-13          
##  8 6a9004  Military Hospital 2014-05-13          
##  9 09e386  Military Hospital 2014-05-14          
## 10 865581  Military Hospital 2014-05-15          
## # … with 20 more rows
…
slice() hakkında daha fazla örnek ve ayrıntı için Tekilleştirme sayfasına bakabilirsiniz.

Grup boyutuna göre filtreleyin

‘add_count()’ fonksiyonu, o satırın grubundaki satır sayısını veren orijinal verilere bir ‘n’ sütunu ekler.

Aşağıda gösterildiği gibi, “hastane” sütununa “add_count()” uygulanır, bu nedenle yeni “n” sütunundaki değerler, o satırın hastane grubundaki satır sayısını yansıtır. ‘n’ sütunundaki değerlerin nasıl tekrarlandığına dikkat edin. Aşağıdaki örnekte, ‘n’ sütun adı ‘add_count()’ içindeki ‘name =’ kullanılarak değiştirilebilir. Gösteri amacıyla sütunları select() ile yeniden düzenliyoruz.

linelist %>% 
  as_tibble() %>% 
  add_count(hospital) %>%          # "bu sıra ile aynı hastaneye kabul edilen sıra sayısı" ekle
  select(hospital, n, everything())

## # A tibble: 5,888 × 31
##    hospital          n case_id gener…¹ date_inf…² date_onset date_hos…³ date_out…⁴ outcome gender   age age_u…⁵ age_y…⁶
##    <chr>         <int> <chr>     <dbl> <date>     <date>     <date>     <date>     <chr>   <chr>  <dbl> <chr>     <dbl>
##  1 Other           885 5fe599        4 2014-05-08 2014-05-13 2014-05-15 NA         <NA>    m          2 years         2
##  2 Missing        1469 8689b7        4 NA         2014-05-13 2014-05-14 2014-05-18 Recover f          3 years         3
##  3 St. Mark's M…   422 11f8ea        2 NA         2014-05-16 2014-05-18 2014-05-30 Recover m         56 years        56
##  4 Port Hospital  1762 b8812a        3 2014-05-04 2014-05-18 2014-05-20 NA         <NA>    f         18 years        18
##  5 Military Hos…   896 893f25        3 2014-05-18 2014-05-21 2014-05-22 2014-05-29 Recover m          3 years         3
##  6 Port Hospital  1762 be99c8        3 2014-05-03 2014-05-22 2014-05-23 2014-05-24 Recover f         16 years        16
##  7 Missing        1469 07e3e8        4 2014-05-22 2014-05-27 2014-05-29 2014-06-01 Recover f         16 years        16
##  8 Missing        1469 369449        4 2014-05-28 2014-06-02 2014-06-03 2014-06-07 Death   f          0 years         0
##  9 Missing        1469 f393b4        4 NA         2014-06-05 2014-06-06 2014-06-18 Recover m         61 years        61
## 10 Missing        1469 1389ca        4 NA         2014-06-05 2014-06-07 2014-06-09 Death   f         27 years        27
## # … with 5,878 more rows, 18 more variables: age_cat <fct>, age_cat5 <fct>, lon <dbl>, lat <dbl>, infector <chr>,
## #   source <chr>, wt_kg <dbl>, ht_cm <dbl>, ct_blood <dbl>, fever <chr>, chills <chr>, cough <chr>, aches <chr>,
## #   vomit <chr>, temp <dbl>, time_admission <chr>, bmi <dbl>, days_onset_hosp <dbl>, and abbreviated variable names
## #   ¹​generation, ²​date_infection, ³​date_hospitalisation, ⁴​date_outcome, ⁵​age_unit, ⁶​age_years
…
  # Yeni sütunlar
  mutate(
    # hastaneye kabule kadar geçen ortalama gün sayısı (1 ondalık sayıya yuvarlanır)
    group_delay_admit = round(mean(days_onset_hosp, na.rm=T), 1),
    
    # sıra gecikmesi ile hastanelerindeki ortalama gecikme arasındaki fark (1 ondalık basamağa yuvarlanır)
    diff_to_group     = round(days_onset_hosp - group_delay_admit, 1)) %>%
  
  # yalnızca belirli satırları seçin - gösterim/görüntüleme amaçlı
  select(case_id, hospital, days_onset_hosp, group_delay_admit, diff_to_group)

## # A tibble: 5,888 × 5
## # Groups:   hospital [6]
##    case_id hospital                             days_onset_hosp group_delay_admit diff_to_group
##    <chr>   <chr>                                          <dbl>             <dbl>         <dbl>
##  1 5fe599  Other                                              2               2             0  
##  2 8689b7  Missing                                            1               2.1          -1.1
##  3 11f8ea  St. Mark's Maternity Hospital (SMMH)               2               2.1          -0.1
##  4 b8812a  Port Hospital                                      2               2.1          -0.1
##  5 893f25  Military Hospital                                  1               2.1          -1.1
##  6 be99c8  Port Hospital                                      1               2.1          -1.1
##  7 07e3e8  Missing                                            2               2.1          -0.1
##  8 369449  Missing                                            1               2.1          -1.1
##  9 f393b4  Missing                                            1               2.1          -1.1
## 10 1389ca  Missing                                            2               2.1          -0.1
## # … with 5,878 more rows
…
